{
    "people": [
        {
            "id": 1,
            "name": "Kim Yo Jong",
            "url": "https://i.guim.co.uk/img/media/acbc8b6e6049d420c7bce1f344ea012fca586546/304_5_4140_2484/master/4140.jpg?width=1200&height=1200&quality=85&auto=format&fit=crop&s=bf42cf10da7e4302018aaf5dada792c8",
            "rows": 2,
            "cols": 2
        },
        {
            "id": 2,
            "name": "KIm Jong Un",
            "url": "https://upload.wikimedia.org/wikipedia/commons/6/6e/Kim_Jong-un_April_2019_%28cropped%29.jpg",
            "rows": 1,
            "cols": 1
        },
        {
            "id": 3,
            "name": "Kim Yo Jong",
            "url": "https://i.guim.co.uk/img/media/acbc8b6e6049d420c7bce1f344ea012fca586546/304_5_4140_2484/master/4140.jpg?width=1200&height=1200&quality=85&auto=format&fit=crop&s=bf42cf10da7e4302018aaf5dada792c8",
            "rows": 1,
            "cols": 1
        },
        {
            "id": 4,
            "name": "Kim Jong Un",
            "url": "https://upload.wikimedia.org/wikipedia/commons/6/6e/Kim_Jong-un_April_2019_%28cropped%29.jpg",
            "rows": 1,
            "cols": 1
        },
        {
            "id": 5,
            "name": "Kim Yo Jong",
            "url": "https://i.guim.co.uk/img/media/acbc8b6e6049d420c7bce1f344ea012fca586546/304_5_4140_2484/master/4140.jpg?width=1200&height=1200&quality=85&auto=format&fit=crop&s=bf42cf10da7e4302018aaf5dada792c8",
            "rows": 1,
            "cols": 1
        }
    ],
    "documents": [
        {
            "userId": 1,
            "id": 1,
            "title": "sunt aut facere repellat provident occaecati excepturi optio reprehenderit",
            "url": "https://akcdn.detik.net.id/community/media/visual/2019/05/03/df6af1b5-8c91-4f60-a6ca-34182a9f42d7_169.jpeg?w=650&q=90",
            "rows": 2,
            "cols": 2
        },
        {
            "userId": 1,
            "id": 2,
            "title": "qui est esse",
            "url": "https://lh3.googleusercontent.com/proxy/l_cC8zf8tebvgQM90O9o4NQyioOwLrJpDhs9vYHObjgFOxIyBlF_-j3h6znQMXq5Re6U7VGWhN8HKZfZEpG2TsKdgo7QOZYJmr2ZXG5TDk2wUL2V6LmqBMQRTKenKNC2mJRxIeq-UP_Gj7Bn",
            "rows": 1,
            "cols": 1
        },
        {
            "userId": 1,
            "id": 3,
            "title": "ea molestias quasi exercitationem repellat qui ipsa sit aut",
            "url": "https://cdn.windowsreport.com/wp-content/uploads/2019/01/unable-save-word-document.png",
            "rows": 1,
            "cols": 1
        },
        {
            "userId": 1,
            "id": 4,
            "title": "eum et est occaecati",
            "url": "https://www.yourtripagent.com/img/asia-2018/brief-history-of-doge-meme.jpg",
            "rows": 1,
            "cols": 1
        },
        {
            "userId": 1,
            "id": 5,
            "title": "nesciunt quas odio",
            "url": "https://cdn.windowsreport.com/wp-content/uploads/2019/01/unable-save-word-document.png",
            "rows": 1,
            "cols": 1
        }
    ],
    "videos": [
        {
            "userId": 1,
            "id": 1,
            "title": "Stressed Out",
            "url": "pXRviuL6vMY",
            "rows": 2,
            "cols": 2
        },
        {
            "userId": 1,
            "id": 2,
            "title": "Somebody That I Used To Know",
            "url": "pXRviuL6vMY",
            "rows": 1,
            "cols": 1
        },
        {
            "userId": 1,
            "id": 3,
            "title": "Heatens",
            "url": "pXRviuL6vMY",
            "rows": 1,
            "cols": 1
        },
        {
            "userId": 1,
            "id": 4,
            "title": "Counting Stars",
            "url": "pXRviuL6vMY",
            "rows": 1,
            "cols": 1
        },
        {
            "userId": 1,
            "id": 5,
            "title": "See You Again",
            "url": "pXRviuL6vMY",
            "rows": 1,
            "cols": 1
        }
    ],
    "channels": [
        {
            "userId": 1,
            "id": 1,
            "title": "Netflix",
            "url": "https://yt3.ggpht.com/a/AATXAJyzyrPJMwSCUxtTlY-MQ9sEqX8XHm8MYq4yr7e6Gw=s900-c-k-c0xffffffff-no-rj-mo",
            "rows": 1,
            "cols": 1
        },
        {
            "userId": 1,
            "id": 2,
            "title": "Netflix",
            "url": "https://yt3.ggpht.com/a/AATXAJyzyrPJMwSCUxtTlY-MQ9sEqX8XHm8MYq4yr7e6Gw=s900-c-k-c0xffffffff-no-rj-mo",
            "rows": 1,
            "cols": 1
        },
        {
            "userId": 1,
            "id": 3,
            "title": "Netflix",
            "url": "https://yt3.ggpht.com/a/AATXAJyzyrPJMwSCUxtTlY-MQ9sEqX8XHm8MYq4yr7e6Gw=s900-c-k-c0xffffffff-no-rj-mo",
            "rows": 1,
            "cols": 1
        },
        {
            "userId": 1,
            "id": 4,
            "title": "Netflix",
            "url": "https://yt3.ggpht.com/a/AATXAJyzyrPJMwSCUxtTlY-MQ9sEqX8XHm8MYq4yr7e6Gw=s900-c-k-c0xffffffff-no-rj-mo",
            "rows": 1,
            "cols": 1
        },
        {
            "userId": 1,
            "id": 5,
            "title": "Netflix",
            "url": "https://yt3.ggpht.com/a/AATXAJyzyrPJMwSCUxtTlY-MQ9sEqX8XHm8MYq4yr7e6Gw=s900-c-k-c0xffffffff-no-rj-mo",
            "rows": 1,
            "cols": 1
        },
        {
            "userId": 1,
            "id": 6,
            "title": "Netflix",
            "url": "https://yt3.ggpht.com/a/AATXAJyzyrPJMwSCUxtTlY-MQ9sEqX8XHm8MYq4yr7e6Gw=s900-c-k-c0xffffffff-no-rj-mo",
            "rows": 1,
            "cols": 1
        },
        {
            "userId": 1,
            "id": 7,
            "title": "Netflix",
            "url": "https://yt3.ggpht.com/a/AATXAJyzyrPJMwSCUxtTlY-MQ9sEqX8XHm8MYq4yr7e6Gw=s900-c-k-c0xffffffff-no-rj-mo",
            "rows": 1,
            "cols": 1
        },
        {
            "userId": 1,
            "id": 8,
            "title": "Netflix",
            "url": "https://yt3.ggpht.com/a/AATXAJyzyrPJMwSCUxtTlY-MQ9sEqX8XHm8MYq4yr7e6Gw=s900-c-k-c0xffffffff-no-rj-mo",
            "rows": 1,
            "cols": 1
        },
        {
            "userId": 1,
            "id": 9,
            "title": "Netflix",
            "url": "https://yt3.ggpht.com/a/AATXAJyzyrPJMwSCUxtTlY-MQ9sEqX8XHm8MYq4yr7e6Gw=s900-c-k-c0xffffffff-no-rj-mo",
            "rows": 1,
            "cols": 1
        }
    ],
    "activities": [
        {
            "userId": 2,
            "name" :"KIm Jong Un",
            "pUrl" : "https://upload.wikimedia.org/wikipedia/commons/6/6e/Kim_Jong-un_April_2019_%28cropped%29.jpg",
            "id": 1,
            "icon": "comment",
            "notify": "commented",
            "title": "sunt aut facere repellat provident",
            "time": "34 minutes ago",
            "url": "https://yt3.ggpht.com/a/AATXAJyzyrPJMwSCUxtTlY-MQ9sEqX8XHm8MYq4yr7e6Gw=s900-c-k-c0xffffffff-no-rj-mo"
        },
        {
            "userId": 1,
            "name" :"KIm Yo Jong",
            "pUrl": "https://i.guim.co.uk/img/media/acbc8b6e6049d420c7bce1f344ea012fca586546/304_5_4140_2484/master/4140.jpg?width=1200&height=1200&quality=85&auto=format&fit=crop&s=bf42cf10da7e4302018aaf5dada792c8",
            "id": 2,
            "icon": "comment",
            "notify": "commented",
            "title": "sunt aut facere repellat provident",
            "time": "44 minutes ago"
        },
        {
            "userId": 1,
            "name" :"Kim Yo Jong",
            "pUrl": "https://i.guim.co.uk/img/media/acbc8b6e6049d420c7bce1f344ea012fca586546/304_5_4140_2484/master/4140.jpg?width=1200&height=1200&quality=85&auto=format&fit=crop&s=bf42cf10da7e4302018aaf5dada792c8",
            "id": 3,
            "icon": "thumb_up",
            "notify": "likes",
            "title": "sunt aut facere repellat provident",
            "time": "4 hours ago"
        },
        {
            "userId": 2,
            "name" :"Kim Jong Un",
            "id": 4,
            "pUrl" : "https://upload.wikimedia.org/wikipedia/commons/6/6e/Kim_Jong-un_April_2019_%28cropped%29.jpg",
            "icon": "thumb_up",
            "notify": "likes",
            "title": "sunt aut facere repellat provident",
            "time": "5 hours ago"
        },
        {
            "userId": 1,
            "name" :"Kim Yo Jong",
            "pUrl": "https://i.guim.co.uk/img/media/acbc8b6e6049d420c7bce1f344ea012fca586546/304_5_4140_2484/master/4140.jpg?width=1200&height=1200&quality=85&auto=format&fit=crop&s=bf42cf10da7e4302018aaf5dada792c8",
            "id": 5,
            "icon": "comment",
            "notify": "commented",
            "title": "sunt aut facere repellat provident",
            "time": "1 day ago"
        },
        {
            "userId": 1,
            "name" :"Kim Yo Jong",
            "pUrl": "https://i.guim.co.uk/img/media/acbc8b6e6049d420c7bce1f344ea012fca586546/304_5_4140_2484/master/4140.jpg?width=1200&height=1200&quality=85&auto=format&fit=crop&s=bf42cf10da7e4302018aaf5dada792c8",
            "id": 6,
            "icon": "thumb_up",
            "notify": "likes",
            "title": "sunt aut facere repellat provident",
            "time": "2 days ago"
        }
    ]
}